mlm-cleaning-lesson.utf8
…
Transforming our data from wide format to long format

Now we get to the really important part. When we are working with multilevel data, we want to work with data in LONG format, where each row contains data from ONE participant at a SINGLE time-point. That means that, if there are no missing data (which there are), each individual will have 6 rows of data, each row representing their self-worth at a single time-point. You cannot do any multilevel modeling if the data are not in long format. You also need the data in this format in order to visualize the data!

d <- d %>% 
  tidyr :: pivot_longer(., cols = contains("self_worth"), names_to = "time", values_to = "sw")

Note that for the above, if you have multiple variables you want to put into long format (e.g., you have 4 variables measured at each time-point and you want to model all of them), you actually have to apply this code to each of the variables separately, and then combine the individual datasets together . it is annoying, but I dont know of a current workaround. We will get to this in a couple of weeks when we talk about modeling within-person processes.

Lets look at what this long format dataset looks like:

d

## # A tibble: 9,546 x 4
##       id gender time            sw
##    <int>  <dbl> <chr>        <dbl>
##  1     1    0.5 self_worth_1 10   
##  2     1    0.5 self_worth_2  3.33
##  3     1    0.5 self_worth_3  7.33
##  4     1    0.5 self_worth_4  8   
##  5     1    0.5 self_worth_5  5.83
##  6     1    0.5 self_worth_6  4.67
##  7     2   -0.5 self_worth_1  6.67
##  8     2   -0.5 self_worth_2  1.33
##  9     2   -0.5 self_worth_3  4   
## 10     2   -0.5 self_worth_4  4.67
## #  with 9,536 more rows
…
