Multilevel Modeling: Within-Person Change
…
A short-cut to parsing within from between

The isolate function is part of the brms package and creates btw and within person scores FOR YOU that are centered.

The by function is the grouping variable, the value function specifies which variable you want to create btw and within person scores for, and which specifies that we want BOTH between and within person scores.

BLch9 <- isolate(BLch9, by = "id", value = "fwkstrs", which = "both")

#Notice that this gives you the same exact output as "hard-coding" between versus within person effects. 
BLch9

## # A tibble: 2,100 x 10
##       id  time fwkstrs freldis time_recode fwkstrs.c fwkstrs.center.btw
##    <int> <int>   <int>   <dbl>       <dbl>     <dbl>              <dbl>
##  1   101     1       3    3.03         -10    0.0314             -0.302
##  2   101     2       3    4.62          -9    0.0314             -0.302
##  3   101     3       3    2.85          -8    0.0314             -0.302
##  4   101     4       4    6.40          -7    1.03               -0.302
##  5   101     5       1    2.54          -6   -1.97               -0.302
##  6   101     6       2    5.16          -5   -0.969              -0.302
##  7   101     7       3    2.70          -4    0.0314             -0.302
##  8   101     8       4    5.00          -3    1.03               -0.302
##  9   101     9       3    4.10          -2    0.0314             -0.302
## 10   101    10       2    5.47          -1   -0.969              -0.302
## #  with 2,090 more rows, and 3 more variables: fwkstrs.center.within <dbl>,
## #   fwkstrs_cb <dbl>, fwkstrs_cw <dbl>
…
